<?xml version="1.0" encoding="UTF-8" standalone="no"?>
<svg
   id="svg5"
   width="100mm"
   height="100mm"
   version="1.1"
   viewBox="0 0 100 100"
   sodipodi:docname="documentation.svg"
   inkscape:version="1.2.2 (b0a8486541, 2022-12-01)"
   xmlns:inkscape="http://www.inkscape.org/namespaces/inkscape"
   xmlns:sodipodi="http://sodipodi.sourceforge.net/DTD/sodipodi-0.dtd"
   xmlns="http://www.w3.org/2000/svg"
   xmlns:svg="http://www.w3.org/2000/svg">
  <defs
     id="defs12" />
  <sodipodi:namedview
     id="namedview10"
     pagecolor="#ffffff"
     bordercolor="#666666"
     borderopacity="1.0"
     inkscape:showpageshadow="2"
     inkscape:pageopacity="0.0"
     inkscape:pagecheckerboard="0"
     inkscape:deskcolor="#d1d1d1"
     inkscape:document-units="mm"
     showgrid="true"
     inkscape:zoom="0.88305852"
     inkscape:cx="26.045839"
     inkscape:cy="219.69099"
     inkscape:window-width="1920"
     inkscape:window-height="1011"
     inkscape:window-x="0"
     inkscape:window-y="32"
     inkscape:window-maximized="1"
     inkscape:current-layer="layer1">
    <inkscape:grid
       type="xygrid"
       id="grid988" />
  </sodipodi:namedview>
  <g
     id="layer1"
     stroke-linejoin="round">
    <text
       id="text4579"
       transform="scale(1.0023 .99766)"
       x="62.17799"
       y="45.220253"
       font-family="Arial"
       font-size="4.1969px"
       letter-spacing="0px"
       stroke="#000000"
       stroke-width="2"
       text-align="center"
       text-anchor="middle"
       word-spacing="0px"
       style="line-height:1.25"
       xml:space="preserve"><tspan
         id="tspan4577"
         x="62.17799"
         y="45.220253"
         stroke="#000000"
         stroke-linejoin="round"
         stroke-width="2" /></text>
    <text
       xml:space="preserve"
       style="font-size:73.5109px;line-height:1;font-family:sans-serif;-inkscape-font-specification:sans-serif;stroke:#000000;stroke-width:3;stroke-linejoin:round;stroke-dasharray:none;stroke-opacity:1"
       x="9.0986328"
       y="74.773506"
       id="text349"
       transform="scale(0.98530467,1.0149145)"><tspan
         sodipodi:role="line"
         id="tspan347"
         style="stroke:#000000;stroke-width:3;stroke-linejoin:round;stroke-dasharray:none;stroke-opacity:1"
         x="9.0986328"
         y="74.773506">J</tspan></text>
    <text
       xml:space="preserve"
       style="font-size:73.5109px;line-height:1;font-family:sans-serif;-inkscape-font-specification:sans-serif;stroke:#000000;stroke-width:3;stroke-linejoin:round;stroke-dasharray:none;stroke-opacity:1"
       x="44.169628"
       y="75.655632"
       id="text349-3"
       transform="scale(0.98530467,1.0149145)"><tspan
         sodipodi:role="line"
         id="tspan347-6"
         style="stroke:#000000;stroke-width:3;stroke-linejoin:round;stroke-dasharray:none;stroke-opacity:1"
         x="44.169628"
         y="75.655632">S</tspan></text>
  </g>
</svg>
