<?xml version="1.0" encoding="UTF-8"?>
<svg id="svg5" width="100mm" height="100mm" version="1.1" viewBox="0 0 100 100" xmlns="http://www.w3.org/2000/svg">
<g id="layer1">
<path id="path458" d="m12.5 17.5 37.5 65 37.5-65z" stroke="#000" stroke-linecap="round" stroke-linejoin="round" stroke-width="5"/>
</g>
</svg>
