<?xml version="1.0" encoding="UTF-8"?>
<svg id="svg5" width="100mm" height="100mm" version="1.1" viewBox="0 0 100 100" xmlns="http://www.w3.org/2000/svg">
<g id="layer1" stroke="#000" stroke-linecap="round">
<rect id="rect844" x="34.526" y="9.5946" width="3.5693e-7" height="0" ry="0" fill="none" stroke-width=".35626"/>
<rect id="rect844-3" x="22.482" y="19.786" width="1.503e-7" height="0" ry="0" fill="none" stroke-width=".15002"/>
<circle id="circle826" cx="23.644" cy="76.356" r="11.144" stroke-width="5.0004"/>
<circle id="circle830" cx="76.356" cy="76.356" r="11.144" stroke-width="5.0004"/>
<circle id="ellipse842" cx="23.644" cy="50" r="11.144" fill="none" stroke-width="5.0004"/>
<circle id="ellipse844" cx="50" cy="76.356" r="11.144" fill="none" stroke-width="5.0004"/>
<circle id="ellipse846" cx="76.356" cy="50" r="11.144" fill="none" stroke-width="5.0004"/>
<circle id="ellipse852" cx="50" cy="50" r="11.144" stroke-width="5.0004"/>
<circle id="ellipse854" cx="76.356" cy="23.644" r="11.144" stroke-width="5.0004"/>
<circle id="ellipse860" cx="23.644" cy="23.644" r="11.144" fill="none" stroke-width="5.0004"/>
</g>
</svg>
