<?xml version="1.0" encoding="UTF-8"?>
<svg id="svg5" width="100mm" height="100mm" version="1.1" viewBox="0 0 100 100" xmlns="http://www.w3.org/2000/svg">
<g id="layer1">
<text id="text4579" x="62.701752" y="45.047333" font-family="Arial" font-size="4.303px" letter-spacing="0px" stroke-width="5.0048" text-align="center" text-anchor="middle" word-spacing="0px" style="line-height:1.25" xml:space="preserve"><tspan id="tspan4577" x="62.701752" y="45.047333" stroke-width="5.0048"/></text>
<path id="path14076" d="m50 9.9999-40 15.5 40 15.5 40-15.5-40-15.5zm0 12a8.1429 3 0 0 1 8.1427 2.9998 8.1429 3 0 0 1-8.1427 2.9998 8.1429 3 0 0 1-8.1427-2.9998 8.1429 3 0 0 1 8.1427-2.9998z" stroke-width="0"/>
<path id="path14078" d="m9.9999 29v41l38.059 20v-46l-38.059-15zm26.905 15.574a6.6429 4.7089 45 0 1 5.0948 2.4262 6.6429 4.7089 45 0 1 1.3674 8.0264 6.6429 4.7089 45 0 1-8.0269-1.3674 6.6429 4.7089 45 0 1-1.3674-8.0269 6.6429 4.7089 45 0 1 2.5456-1.0542 6.6429 4.7089 45 0 1 0.38654-0.004135zm-10.367 6.9727a6.6429 4.7089 45 0 1 5.0948 2.4262 6.6429 4.7089 45 0 1 1.3674 8.0269 6.6429 4.7089 45 0 1-8.0269-1.3674 6.6429 4.7089 45 0 1-1.3674-8.0269 6.6429 4.7089 45 0 1 2.5456-1.0547 6.6429 4.7089 45 0 1 0.38654-0.004135zm-10.36 7.3722a6.6429 4.7089 45 0 1 5.4808 2.4216 6.6429 4.7089 45 0 1 1.3679 8.0269 6.6429 4.7089 45 0 1-8.0269-1.3674 6.6429 4.7089 45 0 1-1.3679-8.0269 6.6429 4.7089 45 0 1 2.5461-1.0542z" stroke-width="0"/>
<path id="path14080" d="m90 29-38.059 15v46l38.059-20v-41zm-23.565 17.915a4.7089 6.6429 45 0 1 0.38654 0.004134 4.7089 6.6429 45 0 1 2.5456 1.0547 4.7089 6.6429 45 0 1-1.3674 8.0269 4.7089 6.6429 45 0 1-8.0269 1.3674 4.7089 6.6429 45 0 1 1.3674-8.0269 4.7089 6.6429 45 0 1 5.0948-2.4262zm15.387 10.004a4.7089 6.6429 45 0 1 2.5456 1.0547 4.7089 6.6429 45 0 1-1.3674 8.0269 4.7089 6.6429 45 0 1-8.0269 1.3674 4.7089 6.6429 45 0 1 1.3674-8.0269 4.7089 6.6429 45 0 1 5.4813-2.4221z" stroke-width="0"/>
</g>
</svg>
