<?xml version="1.0" encoding="UTF-8"?>
<svg id="svg5" width="100mm" height="100mm" version="1.1" viewBox="0 0 100 100" xmlns="http://www.w3.org/2000/svg">
<g id="layer1" stroke-linecap="round">
<text id="text4579" transform="scale(.96825 1.0328)" x="63.938198" y="43.616894" font-family="Arial" font-size="4.1664px" letter-spacing="0px" stroke-width="5.0048" text-align="center" text-anchor="middle" word-spacing="0px" style="line-height:1.25" xml:space="preserve"><tspan id="tspan4577" x="63.938198" y="43.616894" stroke-linecap="round" stroke-width="5.0048"/></text>
<g id="text1049" transform="matrix(20.273 0 0 21.111 -721.63 -1168.4)" stroke="#000" stroke-linejoin="round" stroke-width=".05148" style="white-space:pre" aria-label="@">
<path id="path1107" d="m37.092 58.039c0 0.40217 0.30903 0.7239 0.69427 0.7239 0.23283 0 0.4699-0.11007 0.635-0.30903 0.05503 0.1651 0.23283 0.30903 0.52917 0.30903 0.4445 0 1.0583-0.47837 1.0583-1.2658 0-1.0118-0.76623-1.651-1.8246-1.651-1.1134 0-2.0701 0.94827-2.0701 2.0362 0 0.9398 0.74507 1.7018 1.9346 1.7018 0.39793 0 0.70697-0.05927 1.0033-0.19473l-0.12277-0.3302c-0.24553 0.11007-0.56727 0.17357-0.87207 0.17357-0.75353 0-1.5113-0.5461-1.5113-1.3589s0.7239-1.6595 1.6171-1.6595c0.74083 0 1.4436 0.56727 1.4436 1.2192 0 0.55457-0.38523 0.9652-0.65617 0.9652-0.127 0-0.2032-0.07197-0.2032-0.19897 0-0.0508 0.0085-0.08467 0.02963-0.1651l0.3302-1.1853h-0.3937l-0.06773 0.26247c-0.1016-0.21167-0.23283-0.3048-0.4699-0.3048-0.85513 0-1.0837 0.96943-1.0837 1.2319zm0.7874 0.3683c-0.21167 0-0.34713-0.18627-0.34713-0.44027 0-0.4318 0.30057-0.84667 0.63077-0.84667 0.22013 0 0.3429 0.1524 0.3429 0.4191 0 0.3429-0.2667 0.86783-0.62653 0.86783z" stroke="#000" stroke-linecap="round" stroke-linejoin="round" stroke-width=".05148"/>
</g>
</g>
</svg>
