<?xml version="1.0" encoding="UTF-8"?>
<svg id="svg5" width="100mm" height="100mm" version="1.1" viewBox="0 0 100 100" xmlns="http://www.w3.org/2000/svg">
<g id="layer1">
<path id="path14" d="m72.488 14.08s13.248 17.96 13.248 35.92-13.248 35.92-13.248 35.92" fill="none" stroke="#000" stroke-linecap="round" stroke-width="8.1607"/>
<path id="path14348" d="m15.846 37.98c-0.92641 0-1.6529 0.48104-2.0352 0.85742-0.38226 0.37638-0.57378 0.70862-0.74414 1.0293-0.34072 0.64135-0.56443 1.289-0.81836 2.1016-0.50785 1.6251-1.062 3.8633-1.8066 6.8418l-0.60742 2.4238c0.55349 3.7399 3.6073 2.7007 4.8516 1.2129l0.60547-2.4238c0.23821-0.95284 0.35051-1.3041 0.55273-2.0996 0.20226 0.79564 0.31642 1.1466 0.55469 2.0996 0.74463 2.9785 1.2988 5.2147 1.8066 6.8398 0.25392 0.81256 0.47764 1.4622 0.81836 2.1035 0.17036 0.32068 0.36188 0.65096 0.74414 1.0273 0.38227 0.37638 1.1087 0.85742 2.0352 0.85742 0.92641 0 1.6509-0.48104 2.0332-0.85742 0.38227-0.37638 0.57378-0.70667 0.74414-1.0273 0.34072-0.64135 0.56443-1.291 0.81836-2.1035 0.50785-1.6251 1.062-3.8613 1.8066-6.8398 0.23821-0.95284 0.35051-1.3041 0.55273-2.0996 0.20226 0.79564 0.31642 1.1466 0.55469 2.0996 0.74463 2.9785 1.2988 5.2147 1.8066 6.8398 0.25392 0.81256 0.47764 1.4622 0.81836 2.1035 0.17036 0.32067 0.36188 0.65096 0.74414 1.0273 0.38226 0.37638 1.1087 0.85742 2.0352 0.85742 0.92641 0 1.6509-0.48104 2.0332-0.85742 0.38226-0.37638 0.57378-0.70667 0.74414-1.0273 0.34072-0.64135 0.56444-1.291 0.81836-2.1035 0.50785-1.6251 1.062-3.8613 1.8066-6.8398 0.23821-0.95284 0.35051-1.3041 0.55273-2.0996 0.20226 0.79564 0.31642 1.1466 0.55469 2.0996 0.51765 2.0706 0.74918 3.6949 0.9375 4.957 0.09416 0.63107 0.16833 1.1635 0.30664 1.7227s0.16122 1.3571 1.373 2.1758c0.60591 0.40932 1.5192 0.54694 2.1289 0.42969 0.60972-0.11725 0.97869-0.34612 1.2773-0.54883 0.59731-0.40541 0.97964-0.81462 1.4668-1.3359 0.97432-1.0426 2.2331-2.5476 4.1504-4.7031 1.2488-1.404 1.6501-1.3238 3.6562-1.0898 2.0062 0.23397 5.1278 1.0449 9.375 1.0449h2.5v-5h-2.5c-3.6025 0-6.1854-0.70738-8.7949-1.0117-2.6095-0.30434-5.7335 0.21718-7.9707 2.7324-1.1665 1.3115-1.6857 1.904-2.4219 2.7461-0.17344-1.0423-0.27745-1.9028-0.63476-3.332-0.74463-2.9785-1.2988-5.2167-1.8066-6.8418-0.25392-0.81256-0.47764-1.4602-0.81836-2.1016-0.17036-0.32067-0.36188-0.65291-0.74414-1.0293-0.38226-0.37638-1.1068-0.85742-2.0332-0.85742-0.92641 0-1.6529 0.48104-2.0352 0.85742-0.38226 0.37638-0.57378 0.70862-0.74414 1.0293-0.34072 0.64135-0.56443 1.289-0.81836 2.1016-0.50785 1.6251-1.062 3.8633-1.8066 6.8418-0.23826 0.95306-0.35242 1.304-0.55469 2.0996-0.20222-0.7955-0.31452-1.1468-0.55274-2.0996-0.74463-2.9785-1.2988-5.2167-1.8066-6.8418-0.25392-0.81256-0.47764-1.4602-0.81836-2.1016-0.17036-0.32067-0.36188-0.65291-0.74414-1.0293-0.38226-0.37638-1.1068-0.85742-2.0332-0.85742-0.92641 0-1.6529 0.48104-2.0352 0.85742-0.38226 0.37638-0.57378 0.70862-0.74414 1.0293-0.34072 0.64135-0.56444 1.289-0.81836 2.1016-0.50785 1.6251-1.062 3.8633-1.8066 6.8418-0.23826 0.95306-0.35242 1.304-0.55469 2.0996-0.20222-0.7955-0.31452-1.1468-0.55273-2.0996-0.74462-2.9785-1.2988-5.2167-1.8066-6.8418-0.25392-0.81256-0.47764-1.4602-0.81836-2.1016-0.17036-0.32067-0.36188-0.65291-0.74414-1.0293-0.38226-0.37638-1.1068-0.85742-2.0332-0.85742z" color="#000000" stroke-linecap="square" stroke-miterlimit="3.8" style="-inkscape-stroke:none"/>
<path id="path972" d="m60.245 40.356 17 10-17 9z" stroke="#000" stroke-linecap="round" stroke-linejoin="round" stroke-width="4"/>
</g>
</svg>
