<?xml version="1.0" encoding="UTF-8"?>
<svg id="svg5" width="100mm" height="100mm" version="1.1" viewBox="0 0 100 100" xmlns="http://www.w3.org/2000/svg">
<g id="layer1" fill="none" stroke="#000" stroke-linecap="round" stroke-linejoin="round">
<path id="path833" d="m47.519 25.189-22.482 24.728" stroke-width="5"/>
<rect id="rect194" transform="matrix(.72648 .68719 -.67272 .7399 0 0)" x="40.464" y="-15.569" width="60.227" height="35.217" stroke-width="8.0008"/>
<path id="path776" d="m55.306 32.555-22.482 24.728" stroke-width="5"/>
<path id="path778" d="m63.093 39.921-22.482 24.728" stroke-width="5"/>
<path id="path780" d="m74.866 51.057-22.482 24.728" stroke-width="5"/>
<path id="path2768" d="m12.455 12.455 16.861 16.861" stroke-width="5"/>
<path id="path2770" d="m70.594 70.594 16.861 16.861" stroke-width="5"/>
</g>
</svg>
