<?xml version="1.0" encoding="UTF-8"?>
<svg id="svg5" width="100mm" height="100mm" version="1.1" viewBox="0 0 100 100" xmlns="http://www.w3.org/2000/svg">
<g id="layer1">
<circle id="path5045" cx="40.475" cy="59.525" r="30.421"/>
<path id="path970" d="m40.942 21h32" fill="none" stroke="#000" stroke-linecap="round" stroke-width="5"/>
<path id="path972" d="m70.942 12 17 10-17 9z" stroke="#000" stroke-linecap="round" stroke-linejoin="round" stroke-width="4"/>
</g>
</svg>
