<?xml version="1.0" encoding="UTF-8"?>
<svg id="svg5" width="100mm" height="100mm" version="1.1" viewBox="0 0 100 100" xmlns="http://www.w3.org/2000/svg">
<g id="layer1">
<text id="text4579" x="62.701752" y="45.047333" font-family="Arial" font-size="4.303px" letter-spacing="0px" stroke-width="5.0048" text-align="center" text-anchor="middle" word-spacing="0px" style="line-height:1.25" xml:space="preserve"><tspan id="tspan4577" x="62.701752" y="45.047333" stroke-width="5.0048"/></text>
<circle id="path2017" cx="42.5" cy="42.5" r="28.5" fill="none" stroke="#000" stroke-linecap="round" stroke-linejoin="round" stroke-miterlimit="3.9" stroke-width="8"/>
<path id="path8272" d="m86 86-22-22" fill="none" stroke="#000" stroke-linecap="round" stroke-width="8"/>
</g>
</svg>
