<?xml version="1.0" encoding="UTF-8"?>
<svg id="レイヤー_1" width="604.68" height="131.12" version="1.1" xmlns="http://www.w3.org/2000/svg" xmlns:cc="http://creativecommons.org/ns#" xmlns:dc="http://purl.org/dc/elements/1.1/" xmlns:rdf="http://www.w3.org/1999/02/22-rdf-syntax-ns#">
<metadata id="metadata43">
<rdf:RDF>
<cc:Work rdf:about="">
<dc:format>image/svg+xml</dc:format>
<dc:type rdf:resource="http://purl.org/dc/dcmitype/StillImage"/>
</cc:Work>
</rdf:RDF>
</metadata>
<defs id="defs41">
<marker id="marker1393" overflow="visible" orient="auto">
<path id="path1391" transform="matrix(-.4 0 0 -.4 -4 0)" d="m0 0 5-5-17.5 5 17.5 5z" fill="#f00000" fill-rule="evenodd" stroke="#f00000" stroke-width="1pt"/>
</marker>
<marker id="Arrow1Mend" overflow="visible" orient="auto">
<path id="path1070" transform="matrix(-.4 0 0 -.4 -4 0)" d="m0 0 5-5-17.5 5 17.5 5z" fill="#f00000" fill-rule="evenodd" stroke="#f00000" stroke-width="1pt"/>
</marker>
</defs>
<g id="g186" transform="matrix(2.9505 0 0 2.9505 -801.89 -159.71)">
<rect id="rect844" x="483.43" y="-81.191" width="1.9472e-6" height="0" ry="0" fill="none" stroke="#000" stroke-linecap="round" stroke-width="1.9435"/>
<path id="path11" d="m444.71 65.263h12.803l-6.4017-11.103-6.4011 11.103" stroke-width="0"/>
<path id="path11-3" d="m438.31 76.365h12.803l-6.4016-11.103-6.4012 11.103" stroke-width="0"/>
<path id="path11-6" d="m451.11 76.365h12.803l-6.4017-11.103-6.4012 11.103" stroke-width="0"/>
<path id="path11-7" d="m431.91 87.468h12.803l-6.4017-11.103-6.4012 11.103" stroke-width="0"/>
<path id="path11-3-5" d="m425.51 98.571h12.803l-6.4017-11.103-6.4011 11.103" stroke-width="0"/>
<path id="path11-6-3" d="m438.31 98.571h12.803l-6.4016-11.103-6.4012 11.103" stroke-width="0"/>
<path id="path11-5" d="m457.52 87.468h12.803l-6.4016-11.103-6.4012 11.103" stroke-width="0"/>
<path id="path11-3-6" d="m451.11 98.571h12.803l-6.4017-11.103-6.4012 11.103" stroke-width="0"/>
<path id="path11-6-2" d="m463.92 98.571h12.803l-6.4017-11.103-6.4011 11.103" stroke-width="0"/>
</g>
<rect id="rect188" x="397.67" y="-399.27" width="5.7452e-6" height="0" ry="0" fill="none" stroke="#000" stroke-linecap="round" stroke-width="5.7344"/>
<g id="g223" transform="matrix(4.0028 0 0 4.0028 -983.52 -322.74)" stroke-width="0">
<path id="path196" d="m311.8 97.008h18.886l-9.4434-16.378-9.4426 16.378"/>
<path id="path198" d="m302.36 113.39h18.886l-9.4434-16.378-9.4426 16.378"/>
<path id="path200" d="m321.25 113.39h18.886l-9.4434-16.378-9.4426 16.378"/>
</g>
<path id="path227" d="m5e-7 131.12h151.2l-75.603-131.12-75.596 131.12" stroke-width="0"/>
<path id="path236" d="m151.19 55.524h75.596" fill="none" marker-end="url(#Arrow1Mend)" stroke="#f00000" stroke-width="2.0002"/>
<path id="path1389" d="m377.98 55.524h75.596" fill="none" marker-end="url(#marker1393)" stroke="#f00000" stroke-width="2.0002"/>
</svg>
