<?xml version="1.0" encoding="UTF-8"?>
<svg id="svg5" width="100mm" height="100mm" version="1.1" viewBox="0 0 100 100" xmlns="http://www.w3.org/2000/svg">
<g id="layer1">
<rect id="rect350" x="20" y="20" width="60" height="60" rx="5" ry="5" style="paint-order:stroke markers fill"/>
</g>
</svg>
