<?xml version="1.0" encoding="UTF-8"?>
<svg id="svg5" width="100mm" height="100mm" version="1.1" viewBox="0 0 100 100" xmlns="http://www.w3.org/2000/svg">
<g id="layer1">
<rect id="rect844" x="34.526" y="9.5946" width="3.5693e-7" height="0" ry="0" fill="none" stroke="#000" stroke-linecap="round" stroke-width=".35626"/>
<rect id="rect844-3" x="22.482" y="19.786" width="1.503e-7" height="0" ry="0" fill="none" stroke="#000" stroke-linecap="round" stroke-width=".15002"/>
<g id="text980" transform="matrix(3.9419 0 0 2.8394 -14.334 -737.86)" dominant-baseline="auto" font-family="Arial" font-size="38.062px" letter-spacing="0px" text-align="center" text-anchor="middle" word-spacing="0px" style="font-feature-settings:normal;font-variant-alternates:normal;font-variant-caps:normal;font-variant-ligatures:normal;font-variant-numeric:normal;font-variant-position:normal;line-height:1.25;shape-padding:0;text-decoration-color:#000000;text-decoration-line:none;text-decoration-style:solid;text-indent:0;text-orientation:mixed;text-transform:none;white-space:normal" aria-label="#">
<g id="text2378" transform="matrix(8.0276 0 0 11.158 -2.4016 252.88)" font-family="Arial" font-size="1.4112px" letter-spacing="0px" stroke-linecap="round" word-spacing="0px" style="line-height:1.55" aria-label="M">
<text id="text6568" transform="scale(1.0006 .99938)" x="2.6775298" y="2.972363" font-family="sans-serif" font-size=".1337px" stroke-linejoin="round" stroke-width=".002211" style="line-height:1.25" xml:space="preserve"><tspan id="tspan6566" stroke-linecap="round" stroke-linejoin="round" stroke-width=".002211"/></text>
<path id="path379" d="m1.8739 1.0159v2.3763" fill="none" stroke="#000" stroke-width=".15791"/>
<path id="path941" d="m2.7904 1.0159v2.3763" fill="none" stroke="#000" stroke-width=".15791"/>
<path id="path995" d="m1.1425 2.6617h2.3793" fill="none" stroke="#000" stroke-width=".15791"/>
<path id="path997" d="m1.1425 1.7464h2.3793" fill="none" stroke="#000" stroke-width=".15791"/>
</g>
<g id="text5237" transform="matrix(3.8544 0 0 4.8533 3.1812 280.42)" dominant-baseline="auto" stroke="#000" stroke-linejoin="round" stroke-width=".13822" style="font-feature-settings:normal;font-variant-alternates:normal;font-variant-caps:normal;font-variant-ligatures:normal;font-variant-numeric:normal;font-variant-position:normal;shape-padding:0;text-decoration-color:#000000;text-decoration-line:none;text-decoration-style:solid;text-indent:0;text-orientation:mixed;text-transform:none;white-space:normal" aria-label="5">
<path id="path5078" d="m3.738 0.84257h-0.68635l-0.09939 0.72386h0.1519c0.076886-0.091889 0.14065-0.12377 0.24379-0.12377 0.17815 0 0.29067 0.12189 0.29067 0.3188 0 0.19128-0.11064 0.30755-0.29067 0.30755-0.1444 0-0.23253-0.073136-0.27192-0.22316h-0.16502c0.016878 0.086263 0.065635 0.36943 0.44069 0.36943 0.26816 0 0.45569-0.19503 0.45569-0.47632 0-0.26254-0.1744-0.44257-0.42944-0.44257-0.093764 0-0.16878 0.024379-0.24566 0.080637l0.052508-0.37131h0.55321z" stroke="#000" stroke-linejoin="round" stroke-width=".13822"/>
</g>
<g id="text3452" transform="matrix(3.6958 0 0 4.7194 16.352 271.4)" dominant-baseline="auto" stroke="#000" stroke-linejoin="round" stroke-width=".14314" style="font-feature-settings:normal;font-variant-alternates:normal;font-variant-caps:normal;font-variant-ligatures:normal;font-variant-numeric:normal;font-variant-position:normal;shape-padding:0;text-decoration-color:#000000;text-decoration-line:none;text-decoration-style:solid;text-indent:0;text-orientation:mixed;text-transform:none;white-space:normal" aria-label="3">
<path id="path5075" d="m1.9906 0.76647c0.14627 0 0.23441 0.086263 0.23441 0.22691 0 0.17253-0.10689 0.20441-0.3263 0.20816v0.14065h0.020628l0.069385-0.00188c0.1819 0 0.27567 0.082512 0.27567 0.24191 0 0.1669-0.10314 0.26629-0.27567 0.26629-0.18003 0-0.26816-0.090013-0.27942-0.28317h-0.16502c0.020628 0.28879 0.16127 0.42944 0.43882 0.42944 0.27379 0 0.45007-0.16315 0.45007-0.41444 0-0.16878-0.065635-0.26254-0.22503-0.31692 0.12377-0.048757 0.18565-0.14252 0.18565-0.27567 0-0.22878-0.1519-0.36568-0.40506-0.36568-0.26816 0-0.41069 0.14627-0.41631 0.42944h0.16502c0.0037506-0.14439 0.043132-0.28504 0.25316-0.28504z" stroke="#000" stroke-linejoin="round" stroke-width=".14314"/>
</g>
<g id="text1400" transform="matrix(5.3368 0 0 6.8723 -37.735 -1296.9)" stroke="#000" stroke-linecap="round" stroke-linejoin="round" stroke-width=".098711" aria-label="E">
<path id="path1402" d="m8.5864 227.6h0.50234v-0.10376h-0.50234v-0.29483h0.52132v-0.10376h-0.639v0.92244h0.66178v-0.10376h-0.5441z" stroke="#000" stroke-linecap="round" stroke-linejoin="round" stroke-width=".098711"/>
</g>
</g>
</g>
</svg>
