<?xml version="1.0" encoding="UTF-8"?>
<svg id="svg5" width="100mm" height="100mm" version="1.1" viewBox="0 0 100 100" xmlns="http://www.w3.org/2000/svg">
<g id="layer1" stroke="#000" stroke-linejoin="round">
<g id="text384" transform="matrix(1.1123 0 0 .89901 -3.5855 -3.6515)" stroke-width="3" aria-label="p">
<path id="path489" d="m13.713 52.593v-35.197h3.6525v3.7473q2.7987-4.4589 7.9216-4.4589 4.9332 0 7.7793 3.6525 2.8935 3.6525 2.8935 9.9139 0 5.9293-2.941 9.5344-2.8935 3.5576-7.6844 3.5576-4.6012 0-7.637-3.6999v12.95zm10.91-32.208q-3.1307 0-5.0281 2.6563-1.8974 2.6089-1.8974 6.9729t1.8974 7.0204q1.8974 2.6089 5.0281 2.6089 3.2256 0 5.2178-2.6089 1.9923-2.6563 1.9923-6.878 0-4.4589-1.9923-7.1152-1.9448-2.6563-5.2178-2.6563z" stroke="#000" stroke-linejoin="round" stroke-width="3"/>
</g>
<g id="text384-3" transform="matrix(1.3119 0 0 1.0612 -6.8976 -13.502)" stroke-width="2.5426" aria-label="V">
<path id="path492" d="m37.445 95.758h-4.7435l-12.428-34.58h4.7435l10.151 29.267 9.5818-29.267h4.696z" stroke="#000" stroke-linejoin="round" stroke-width="2.5426"/>
</g>
<g id="text384-7" transform="matrix(1.1699 0 0 .99589 -5.5219 .86838)" stroke-width="2.7793" aria-label="T">
<path id="path486" d="m66.4 15.351v37.586h-5.4026v-37.586h-13.942v-4.7636h33.229v4.7636z" stroke="#000" stroke-linejoin="round" stroke-width="2.7793"/>
</g>
</g>
</svg>
