<?xml version="1.0" encoding="UTF-8"?>
<svg id="svg5" width="100mm" height="100mm" version="1.1" viewBox="0 0 100 100" xmlns="http://www.w3.org/2000/svg">
<g id="layer1" stroke="#000" stroke-linecap="round">
<path id="path12917" d="m14 14h72" fill="none" stroke-width="8"/>
<path id="path12919" d="m14 86h72" fill="none" stroke-width="8"/>
<path id="path12921" d="m20 23v54" fill="none" stroke-width="5"/>
<path id="path12923" d="m80 23v54" fill="none" stroke-width="5"/>
<path id="path12925" d="m31 22.529h38s-5 24-19 24-19-24-19-24z" stroke-linejoin="round" stroke-width="4"/>
<path id="path12927" d="m31 77.221h38s-5-24-19-24-19 24-19 24z" stroke-linejoin="round" stroke-width="4"/>
</g>
</svg>
