<?xml version="1.0" encoding="UTF-8"?>
<svg viewBox="0 0 3 2" xmlns="http://www.w3.org/2000/svg">
<path d="M0 0h3v2H0z" fill="#EC1920"/>
<path d="M0 0h2v2H0z" fill="#fff"/>
<path d="M0 0h1v2H0z" fill="#051440"/>
</svg>
