<?xml version="1.0" encoding="UTF-8"?>
<svg viewBox="0 0 3 2" xmlns="http://www.w3.org/2000/svg">
<path d="M0 0h1v2H0z" fill="#008C45"/>
<path d="M1 0h1v2H1z" fill="#fff"/>
<path d="M2 0h1v2H2z" fill="#CD212A"/>
</svg>
